…
    ## `summarise()` ungrouping output (override with `.groups` argument)

``` r
aggregate_homo
```

    ## # A tibble: 50 x 3
    ##    city_state     hom_total hom_unsolved
    ##    <chr>              <int>        <int>
    ##  1 Albuquerque_NM       378          146
    ##  2 Atlanta_GA           973          373
    ##  3 Baltimore_MD        2827         1825
    ##  4 Baton Rouge_LA       424          196
    ##  5 Birmingham_AL        800          347
    ##  6 Boston_MA            614          310
    ##  7 Buffalo_NY           521          319
    ##  8 Charlotte_NC         687          206
    ##  9 Chicago_IL          5535         4073
    ## 10 Cincinnati_OH        694          309
    ## # ... with 40 more rows
…
  mutate(
    prop_test = map2(.x = hom_unsolved, .y = hom_total, ~prop.test(x = .x, n = .y)),
    tidy_test = map(.x = prop_test, ~broom::tidy(.x))
  ) %>%
  select(
    -prop_test
  ) %>%
  unnest(tidy_test) %>%
  select(
    city_state, estimate, conf.low, conf.high
  )
results
```

    ## # A tibble: 50 x 4
    ##    city_state     estimate conf.low conf.high
    ##    <chr>             <dbl>    <dbl>     <dbl>
    ##  1 Albuquerque_NM    0.386    0.337     0.438
    ##  2 Atlanta_GA        0.383    0.353     0.415
    ##  3 Baltimore_MD      0.646    0.628     0.663
    ##  4 Baton Rouge_LA    0.462    0.414     0.511
    ##  5 Birmingham_AL     0.434    0.399     0.469
    ##  6 Boston_MA         0.505    0.465     0.545
    ##  7 Buffalo_NY        0.612    0.569     0.654
    ##  8 Charlotte_NC      0.300    0.266     0.336
    ##  9 Chicago_IL        0.736    0.724     0.747
    ## 10 Cincinnati_OH     0.445    0.408     0.483
    ## # ... with 40 more rows
…
    ## Warning: `cols` is now required when using unnest().
    ## Please use `cols = c(value)`

``` r
long_data_tidy
```

    ## # A tibble: 160 x 4
    ##    subject_id arm        week  observations
    ##         <int> <chr>      <chr>        <dbl>
    ##  1          1 control    1             0.2 
    ##  2          1 control    2            -1.31
    ##  3          1 control    3             0.66
    ##  4          1 control    4             1.96
    ##  5          1 control    5             0.23
    ##  6          1 control    6             1.09
    ##  7          1 control    7             0.05
    ##  8          1 control    8             1.94
    ##  9          1 experiment 1             3.05
    ## 10          1 experiment 2             3.67
    ## # ... with 150 more rows
…
